2020-10-04/13:30:27		Tables created successfully!!
2020-10-04/13:43:36		Tables created successfully!!
2020-10-04/13:51:01		Tables created successfully!!
2020-10-04/15:15:14		Tables created successfully!!
2020-10-04/15:31:05		Tables created successfully!!
2020-10-04/15:42:18		Tables created successfully!!
2020-10-04/16:00:16		Tables created successfully!!
2020-10-04/16:22:15		Tables created successfully!!
2020-10-04/16:45:55		Tables created successfully!!
2020-10-04/16:57:49		Tables created successfully!!
2020-10-04/17:01:37		Tables created successfully!!
2020-10-04/17:06:56		Tables created successfully!!
2020-10-04/17:18:03		Tables created successfully!!
2020-10-04/17:30:56		Tables created successfully!!
2020-10-04/17:44:13		Tables created successfully!!
2020-10-04/18:04:40		Tables created successfully!!
2020-10-07/13:04:38		Tables created successfully!!
2020-10-07/13:07:01		Tables created successfully!!
2020-10-07/13:12:09		Tables created successfully!!
2020-10-07/13:13:25		Tables created successfully!!
2020-10-07/13:16:10		Tables created successfully!!
2020-10-07/13:19:42		Tables created successfully!!
2020-10-07/13:20:45		Tables created successfully!!
2020-10-07/19:53:45		Tables created successfully!!
2020-10-07/21:18:26		Tables created successfully!!
2020-10-07/21:18:40		Tables created successfully!!
2020-10-07/21:19:31		Tables created successfully!!
2020-10-07/21:20:12		Tables created successfully!!
2020-10-07/21:20:39		Tables created successfully!!
2020-10-07/21:54:22		Tables created successfully!!
2020-10-07/22:00:29		Tables created successfully!!
2020-10-07/22:03:42		Tables created successfully!!
2020-10-07/22:08:35		Tables created successfully!!
2020-10-07/22:14:22		Tables created successfully!!
2020-10-07/22:32:02		Tables created successfully!!
2020-10-07/22:35:12		Tables created successfully!!
2020-10-07/22:39:43		Tables created successfully!!
2020-10-15/19:24:21		Tables created successfully!!
2020-10-15/19:27:34		Tables created successfully!!
2020-10-15/19:28:43		Tables created successfully!!
2020-10-15/19:29:10		Tables created successfully!!
2020-10-15/19:31:01		Tables created successfully!!
2020-10-15/19:37:11		Tables created successfully!!
2020-10-15/19:40:03		Tables created successfully!!
2020-10-15/19:43:33		Tables created successfully!!
2020-10-15/19:47:13		Tables created successfully!!
2020-10-16/19:49:29		Tables created successfully!!
2020-10-17/13:24:19		Tables created successfully!!
2020-10-17/13:41:24		Tables created successfully!!
2020-11-04/19:33:30		Tables created successfully!!
2020-11-08/19:59:29		Tables created successfully!!
2020-11-08/21:38:11		Tables created successfully!!
2020-11-08/21:39:35		Tables created successfully!!
2020-11-08/21:44:03		Tables created successfully!!
2020-11-08/21:49:19		Tables created successfully!!
2020-11-08/21:54:38		Tables created successfully!!
2020-11-08/21:57:27		Tables created successfully!!
2020-11-09/21:35:10		Tables created successfully!!
