2020-10-02/13:02:52		Missing Values Validation Started!!
2020-10-02/13:06:50		Missing Values Validation Started!!
2020-10-02/13:07:54		Missing Values Validation Started!!
2020-10-02/19:49:39		Missing Values Validation Started!!
2020-10-02/19:56:50		Missing Values Validation Started!!
2020-10-02/20:01:32		Missing Values Validation Started!!
2020-10-02/20:06:36		Missing Values Validation Started!!
2020-10-02/20:10:07		Missing Values Validation Started!!
2020-10-02/20:43:57		Missing Values Validation Started!!
2020-10-02/20:59:59		Missing Values Validation Started!!
2020-10-04/10:13:00		Missing Values Validation Started!!
2020-10-04/10:32:49		Missing Values Validation Started!!
2020-10-04/10:37:03		Missing Values Validation Started!!
2020-10-04/10:38:34		Missing Values Validation Started!!
2020-10-04/11:05:20		Missing Values Validation Started!!
2020-10-04/11:06:49		Missing Values Validation Started!!
2020-10-04/11:11:23		Missing Values Validation Started!!
2020-10-04/11:14:02		Missing Values Validation Started!!
2020-10-04/11:23:55		Missing Values Validation Started!!
2020-10-04/11:41:15		Missing Values Validation Started!!
2020-10-04/11:59:15		Missing Values Validation Started!!
2020-10-05/12:44:11		Missing Values Validation Started!!
2020-10-05/12:46:53		Missing Values Validation Started!!
2020-10-05/20:02:10		Missing Values Validation Started!!
2020-10-05/20:27:28		Missing Values Validation Started!!
2020-10-07/11:39:13		Missing Values Validation Started!!
2020-10-07/11:49:30		Missing Values Validation Started!!
2020-10-07/11:52:34		Missing Values Validation Started!!
2020-10-07/12:05:48		Missing Values Validation Started!!
2020-10-07/12:17:31		Missing Values Validation Started!!
2020-10-07/12:33:58		Missing Values Validation Started!!
2020-10-07/12:38:16		Missing Values Validation Started!!
2020-10-07/12:44:34		Missing Values Validation Started!!
2020-10-07/20:33:02		Missing Values Validation Started!!
2020-10-07/20:37:28		Missing Values Validation Started!!
2020-10-07/20:39:40		Missing Values Validation Started!!
2020-10-07/20:45:42		Missing Values Validation Started!!
2020-10-07/20:50:32		Missing Values Validation Started!!
2020-10-07/20:54:34		Missing Values Validation Started!!
2020-10-07/21:30:50		Missing Values Validation Started!!
2020-10-07/21:38:11		Missing Values Validation Started!!
2020-10-07/21:40:33		Missing Values Validation Started!!
2020-10-15/18:45:40		Missing Values Validation Started!!
2020-10-15/19:01:10		Missing Values Validation Started!!
2020-10-15/19:18:35		Missing Values Validation Started!!
2020-10-15/19:22:47		Missing Values Validation Started!!
2020-10-16/19:44:24		Missing Values Validation Started!!
2020-10-17/13:07:27		Missing Values Validation Started!!
2020-10-17/13:08:27		Missing Values Validation Started!!
2020-10-17/13:21:57		Missing Values Validation Started!!
2020-10-17/13:38:29		Missing Values Validation Started!!
2020-11-04/19:21:18		Missing Values Validation Started!!
2020-11-04/19:22:51		Missing Values Validation Started!!
2020-11-04/19:24:52		Missing Values Validation Started!!
2020-11-04/19:28:10		Missing Values Validation Started!!
2020-11-04/19:29:38		Missing Values Validation Started!!
2020-11-04/19:34:16		Missing Values Validation Started!!
2020-11-04/19:35:03		Missing Values Validation Started!!
2020-11-04/19:36:54		Missing Values Validation Started!!
2020-11-04/19:38:10		Missing Values Validation Started!!
2020-11-04/19:39:59		Missing Values Validation Started!!
2020-11-04/19:53:41		Missing Values Validation Started!!
2020-11-04/19:56:12		Missing Values Validation Started!!
2020-11-04/19:59:35		Missing Values Validation Started!!
2020-11-04/20:07:18		Missing Values Validation Started!!
2020-11-04/20:08:46		Missing Values Validation Started!!
2020-11-04/20:10:47		Missing Values Validation Started!!
2020-11-08/19:42:29		Missing Values Validation Started!!
2020-11-08/20:00:39		Missing Values Validation Started!!
2020-11-09/21:04:08		Missing Values Validation Started!!
2020-11-09/21:29:09		Missing Values Validation Started!!
